{
    "/js/app.js": "/js/app.js",
    "/css/app.css": "/css/app.css",
    "/images/about-01-709x667.png": "/images/about-01-709x667.png",
    "/images/about-bg.jpg": "/images/about-bg.jpg",
    "/images/about-us-1-720x459.jpg": "/images/about-us-1-720x459.jpg",
    "/images/about-us-2-420x280.jpg": "/images/about-us-2-420x280.jpg",
    "/images/about-us-3-420x280.jpg": "/images/about-us-3-420x280.jpg",
    "/images/about-us-4-420x280.jpg": "/images/about-us-4-420x280.jpg",
    "/images/accordions-1-570x600.jpg": "/images/accordions-1-570x600.jpg",
    "/images/accordions-1-640x472.jpg": "/images/accordions-1-640x472.jpg",
    "/images/ajax-loader.gif": "/images/ajax-loader.gif",
    "/images/avatars/1.jpg": "/images/avatars/1.jpg",
    "/images/avatars/2.jpg": "/images/avatars/2.jpg",
    "/images/avatars/3.jpg": "/images/avatars/3.jpg",
    "/images/avatars/4.jpg": "/images/avatars/4.jpg",
    "/images/avatars/5.jpg": "/images/avatars/5.jpg",
    "/images/avatars/6.jpg": "/images/avatars/6.jpg",
    "/images/avatars/7.jpg": "/images/avatars/7.jpg",
    "/images/avatars/8.jpg": "/images/avatars/8.jpg",
    "/images/aws-glacier-service-icon-120-317771.png": "/images/aws-glacier-service-icon-120-317771.png",
    "/images/aws-glacier-service-icon-144-317771.png": "/images/aws-glacier-service-icon-144-317771.png",
    "/images/aws-glacier-service-icon-152-317771.png": "/images/aws-glacier-service-icon-152-317771.png",
    "/images/aws-glacier-service-icon-16-317771.png": "/images/aws-glacier-service-icon-16-317771.png",
    "/images/aws-glacier-service-icon-24-317771.png": "/images/aws-glacier-service-icon-24-317771.png",
    "/images/aws-glacier-service-icon-32-317771.png": "/images/aws-glacier-service-icon-32-317771.png",
    "/images/aws-glacier-service-icon-48-317771.png": "/images/aws-glacier-service-icon-48-317771.png",
    "/images/aws-glacier-service-icon-512-317771.png": "/images/aws-glacier-service-icon-512-317771.png",
    "/images/aws-glacier-service-icon-57-317771.png": "/images/aws-glacier-service-icon-57-317771.png",
    "/images/aws-glacier-service-icon-64-317771.png": "/images/aws-glacier-service-icon-64-317771.png",
    "/images/aws-glacier-service-icon-72-317771.png": "/images/aws-glacier-service-icon-72-317771.png",
    "/images/bg-01.jpg": "/images/bg-01.jpg",
    "/images/bg-02.jpg": "/images/bg-02.jpg",
    "/images/bg-03.jpg": "/images/bg-03.jpg",
    "/images/bg-04.jpg": "/images/bg-04.jpg",
    "/images/bg-05.jpg": "/images/bg-05.jpg",
    "/images/bg-06.jpg": "/images/bg-06.jpg",
    "/images/bg-07.jpg": "/images/bg-07.jpg",
    "/images/bg-08.jpg": "/images/bg-08.jpg",
    "/images/bg-09.jpg": "/images/bg-09.jpg",
    "/images/bg-10.jpg": "/images/bg-10.jpg",
    "/images/bg-11.jpg": "/images/bg-11.jpg",
    "/images/bg-blog-1.jpg": "/images/bg-blog-1.jpg",
    "/images/bg-breadcrumbs-02.jpg": "/images/bg-breadcrumbs-02.jpg",
    "/images/bg-image-8-1920x693.jpg": "/images/bg-image-8-1920x693.jpg",
    "/images/bg-image-8.jpg": "/images/bg-image-8.jpg",
    "/images/bg-image-default.jpg": "/images/bg-image-default.jpg",
    "/images/bg-image-fixed.jpg": "/images/bg-image-fixed.jpg",
    "/images/bg-pattern-dark.jpg": "/images/bg-pattern-dark.jpg",
    "/images/bg-photo-modal-01.jpg": "/images/bg-photo-modal-01.jpg",
    "/images/blick-01.png": "/images/blick-01.png",
    "/images/blick-content-01.png": "/images/blick-content-01.png",
    "/images/blick-content-02.png": "/images/blick-content-02.png",
    "/images/blick-content-03.png": "/images/blick-content-03.png",
    "/images/block-video-870x500.png": "/images/block-video-870x500.png",
    "/images/blog-01-868x640.jpg": "/images/blog-01-868x640.jpg",
    "/images/blog-02-868x640.jpg": "/images/blog-02-868x640.jpg",
    "/images/blog-03-870x580.jpg": "/images/blog-03-870x580.jpg",
    "/images/blog-post-1-870x580.jpg": "/images/blog-post-1-870x580.jpg",
    "/images/blog-post-2-870x580.jpg": "/images/blog-post-2-870x580.jpg",
    "/images/blog-post-3-870x580.jpg": "/images/blog-post-3-870x580.jpg",
    "/images/blog-post-4-870x580.jpg": "/images/blog-post-4-870x580.jpg",
    "/images/blog-post-video-01-420x305.jpg": "/images/blog-post-video-01-420x305.jpg",
    "/images/book-01-188x246.jpg": "/images/book-01-188x246.jpg",
    "/images/book-01-54x71.jpg": "/images/book-01-54x71.jpg",
    "/images/book-01-cover.jpg": "/images/book-01-cover.jpg",
    "/images/book-02-188x246.jpg": "/images/book-02-188x246.jpg",
    "/images/book-02-54x71.jpg": "/images/book-02-54x71.jpg",
    "/images/book-03-188x246.jpg": "/images/book-03-188x246.jpg",
    "/images/book-04-188x246.jpg": "/images/book-04-188x246.jpg",
    "/images/book-05-188x246.jpg": "/images/book-05-188x246.jpg",
    "/images/book-06-188x246.jpg": "/images/book-06-188x246.jpg",
    "/images/book-07-188x246.jpg": "/images/book-07-188x246.jpg",
    "/images/book-08-188x246-188x246.jpg": "/images/book-08-188x246-188x246.jpg",
    "/images/book-08-188x246.jpg": "/images/book-08-188x246.jpg",
    "/images/book-2-cover.jpg": "/images/book-2-cover.jpg",
    "/images/book-3-cover.jpg": "/images/book-3-cover.jpg",
    "/images/book-4-cover.jpg": "/images/book-4-cover.jpg",
    "/images/book-5-cover.jpg": "/images/book-5-cover.jpg",
    "/images/book-6-cover.jpg": "/images/book-6-cover.jpg",
    "/images/brand/logo.svg": "/images/brand/logo.svg",
    "/images/brand/sygnet.svg": "/images/brand/sygnet.svg",
    "/images/brave-ipad-718x519.png": "/images/brave-ipad-718x519.png",
    "/images/brave-iphone-510x874.png": "/images/brave-iphone-510x874.png",
    "/images/brave-mac-709x667.png": "/images/brave-mac-709x667.png",
    "/images/breadcrumbs-background-01.jpg": "/images/breadcrumbs-background-01.jpg",
    "/images/breadcrumbs.svg": "/images/breadcrumbs.svg",
    "/images/car-01-210x72.png": "/images/car-01-210x72.png",
    "/images/car-02-255x77.png": "/images/car-02-255x77.png",
    "/images/car-03-245x92.png": "/images/car-03-245x92.png",
    "/images/car-04-279x93.png": "/images/car-04-279x93.png",
    "/images/carousel-image-1-480x320.jpg": "/images/carousel-image-1-480x320.jpg",
    "/images/carousel-image-2-480x320.jpg": "/images/carousel-image-2-480x320.jpg",
    "/images/carousel-image-3-480x320.jpg": "/images/carousel-image-3-480x320.jpg",
    "/images/carousel-image-4-480x320.jpg": "/images/carousel-image-4-480x320.jpg",
    "/images/contact-bg.jpg": "/images/contact-bg.jpg",
    "/images/cta-avatar-01-491x571.png": "/images/cta-avatar-01-491x571.png",
    "/images/event-01-570x370.jpg": "/images/event-01-570x370.jpg",
    "/images/event-02-570x370.jpg": "/images/event-02-570x370.jpg",
    "/images/event-03-570x370.jpg": "/images/event-03-570x370.jpg",
    "/images/favicon.ico": "/images/favicon.ico",
    "/images/favicon.png": "/images/favicon.png",
    "/images/features-bg.jpg": "/images/features-bg.jpg",
    "/images/gallery-01-570x366.jpg": "/images/gallery-01-570x366.jpg",
    "/images/gallery-01-original.jpg": "/images/gallery-01-original.jpg",
    "/images/gallery-02-original.jpg": "/images/gallery-02-original.jpg",
    "/images/gallery-03-original.jpg": "/images/gallery-03-original.jpg",
    "/images/gallery-04-original.jpg": "/images/gallery-04-original.jpg",
    "/images/gallery-05-original.jpg": "/images/gallery-05-original.jpg",
    "/images/gallery-06-original.jpg": "/images/gallery-06-original.jpg",
    "/images/gallery-cobbles-01-1120x650.jpg": "/images/gallery-cobbles-01-1120x650.jpg",
    "/images/gallery-cobbles-02-800x650.jpg": "/images/gallery-cobbles-02-800x650.jpg",
    "/images/gallery-cobbles-03-800x650.jpg": "/images/gallery-cobbles-03-800x650.jpg",
    "/images/gallery-cobbles-04-1120x650.jpg": "/images/gallery-cobbles-04-1120x650.jpg",
    "/images/gallery-cobbles-no-padding-364x250.jpeg": "/images/gallery-cobbles-no-padding-364x250.jpeg",
    "/images/gallery-fullwidth-01-640x430.jpg": "/images/gallery-fullwidth-01-640x430.jpg",
    "/images/gallery-fullwidth-02-640x430.jpg": "/images/gallery-fullwidth-02-640x430.jpg",
    "/images/gallery-fullwidth-03-640x430.jpg": "/images/gallery-fullwidth-03-640x430.jpg",
    "/images/gallery-fullwidth-04-640x430.jpg": "/images/gallery-fullwidth-04-640x430.jpg",
    "/images/gallery-fullwidth-05-640x430.jpg": "/images/gallery-fullwidth-05-640x430.jpg",
    "/images/gallery-fullwidth-06-640x430.jpg": "/images/gallery-fullwidth-06-640x430.jpg",
    "/images/gallery-fullwidth-no-padding-364x165.jpeg": "/images/gallery-fullwidth-no-padding-364x165.jpeg",
    "/images/gallery-grid-01-570x380.jpg": "/images/gallery-grid-01-570x380.jpg",
    "/images/gallery-grid-02-570x380.jpg": "/images/gallery-grid-02-570x380.jpg",
    "/images/gallery-grid-03-570x380.jpg": "/images/gallery-grid-03-570x380.jpg",
    "/images/gallery-grid-04-570x380.jpg": "/images/gallery-grid-04-570x380.jpg",
    "/images/gallery-grid-05-570x380.jpg": "/images/gallery-grid-05-570x380.jpg",
    "/images/gallery-grid-06-570x380.jpg": "/images/gallery-grid-06-570x380.jpg",
    "/images/gallery-video-01-870x490.jpg": "/images/gallery-video-01-870x490.jpg",
    "/images/gallery-video-02-870x490.jpg": "/images/gallery-video-02-870x490.jpg",
    "/images/gallery-video-03-870x490.jpg": "/images/gallery-video-03-870x490.jpg",
    "/images/gallery-video-04-870x490.jpg": "/images/gallery-video-04-870x490.jpg",
    "/images/gmap_marker.png": "/images/gmap_marker.png",
    "/images/gmap_marker_active.png": "/images/gmap_marker_active.png",
    "/images/grid-blog-1-420x305.jpg": "/images/grid-blog-1-420x305.jpg",
    "/images/grid-blog-2-420x305.jpg": "/images/grid-blog-2-420x305.jpg",
    "/images/handle.png": "/images/handle.png",
    "/images/header-background-01.jpg": "/images/header-background-01.jpg",
    "/images/ie8-panel/warning_bar_0000_us.jpg": "/images/ie8-panel/warning_bar_0000_us.jpg",
    "/images/image-1-987x1221.jpg": "/images/image-1-987x1221.jpg",
    "/images/image-2-570x621.jpg": "/images/image-2-570x621.jpg",
    "/images/image-3-945x770.jpg": "/images/image-3-945x770.jpg",
    "/images/image-4-720x459.jpg": "/images/image-4-720x459.jpg",
    "/images/image-5-720x520.jpg": "/images/image-5-720x520.jpg",
    "/images/image-6-646x724.jpg": "/images/image-6-646x724.jpg",
    "/images/image-7-570x380.jpg": "/images/image-7-570x380.jpg",
    "/images/image-8-570x380.jpg": "/images/image-8-570x380.jpg",
    "/images/image-9-570x380.jpg": "/images/image-9-570x380.jpg",
    "/images/inline-gallery-1-480x308.jpg": "/images/inline-gallery-1-480x308.jpg",
    "/images/inline-gallery-2-480x308.jpg": "/images/inline-gallery-2-480x308.jpg",
    "/images/inline-gallery-3-480x308.jpg": "/images/inline-gallery-3-480x308.jpg",
    "/images/inline-gallery-4-480x308.jpg": "/images/inline-gallery-4-480x308.jpg",
    "/images/ipad-01-1360x1233.png": "/images/ipad-01-1360x1233.png",
    "/images/ipad-02-718x519.png": "/images/ipad-02-718x519.png",
    "/images/isotope-loader.png": "/images/isotope-loader.png",
    "/images/landing-auction-1-331x245.jpg": "/images/landing-auction-1-331x245.jpg",
    "/images/landing-auction-10-870x640.jpg": "/images/landing-auction-10-870x640.jpg",
    "/images/landing-auction-11-230x360.jpg": "/images/landing-auction-11-230x360.jpg",
    "/images/landing-auction-11-230x360.png": "/images/landing-auction-11-230x360.png",
    "/images/landing-auction-11-230x469.png": "/images/landing-auction-11-230x469.png",
    "/images/landing-auction-12-1280x720.jpg": "/images/landing-auction-12-1280x720.jpg",
    "/images/landing-auction-12-377x267.png": "/images/landing-auction-12-377x267.png",
    "/images/landing-auction-2-323x245.jpg": "/images/landing-auction-2-323x245.jpg",
    "/images/landing-auction-3-329x245.jpg": "/images/landing-auction-3-329x245.jpg",
    "/images/landing-auction-360x460.jpg": "/images/landing-auction-360x460.jpg",
    "/images/landing-auction-4-318x245.jpg": "/images/landing-auction-4-318x245.jpg",
    "/images/landing-auction-5-331x245.jpg": "/images/landing-auction-5-331x245.jpg",
    "/images/landing-auction-6-323x245.jpg": "/images/landing-auction-6-323x245.jpg",
    "/images/landing-auction-7-329x245.jpg": "/images/landing-auction-7-329x245.jpg",
    "/images/landing-auction-8-318x245.jpg": "/images/landing-auction-8-318x245.jpg",
    "/images/landing-auction-9-870x640.jpg": "/images/landing-auction-9-870x640.jpg",
    "/images/landing-default-360x460.jpg": "/images/landing-default-360x460.jpg",
    "/images/landing-environment-1-960x870.jpg": "/images/landing-environment-1-960x870.jpg",
    "/images/landing-environment-2-720x459.jpg": "/images/landing-environment-2-720x459.jpg",
    "/images/landing-environment-3-960x660.jpg": "/images/landing-environment-3-960x660.jpg",
    "/images/landing-environment-4-960x660.jpg": "/images/landing-environment-4-960x660.jpg",
    "/images/landing-environment-5-960x660.jpg": "/images/landing-environment-5-960x660.jpg",
    "/images/landing-environment-6-960x660.jpg": "/images/landing-environment-6-960x660.jpg",
    "/images/landing-environment-7-420x305.jpg": "/images/landing-environment-7-420x305.jpg",
    "/images/landing-environment-8-420x305.jpg": "/images/landing-environment-8-420x305.jpg",
    "/images/landing-environment-9-420x305.jpg": "/images/landing-environment-9-420x305.jpg",
    "/images/landing-environmental-360x460.jpg": "/images/landing-environmental-360x460.jpg",
    "/images/landing-it-company-1-1920x970.gif": "/images/landing-it-company-1-1920x970.gif",
    "/images/landing-it-company-1-1920x970.jpeg": "/images/landing-it-company-1-1920x970.jpeg",
    "/images/landing-it-company-1-1920x970.jpg": "/images/landing-it-company-1-1920x970.jpg",
    "/images/landing-it-company-1-1920x970.png": "/images/landing-it-company-1-1920x970.png",
    "/images/landing-it-company-2-1120x650.jpg": "/images/landing-it-company-2-1120x650.jpg",
    "/images/landing-it-company-3-800x650.jpg": "/images/landing-it-company-3-800x650.jpg",
    "/images/landing-it-company-360x460.jpg": "/images/landing-it-company-360x460.jpg",
    "/images/landing-it-company-4-800x650.jpg": "/images/landing-it-company-4-800x650.jpg",
    "/images/landing-it-company-5-1120x650.jpg": "/images/landing-it-company-5-1120x650.jpg",
    "/images/landing-it-company-6-1670x1260.jpg": "/images/landing-it-company-6-1670x1260.jpg",
    "/images/landing-it-company-7-570x415.jpg": "/images/landing-it-company-7-570x415.jpg",
    "/images/landing-it-company-8-570x415.jpg": "/images/landing-it-company-8-570x415.jpg",
    "/images/landing-it-company-9-570x415.jpg": "/images/landing-it-company-9-570x415.jpg",
    "/images/landing-maritime-1-1920x715.jpg": "/images/landing-maritime-1-1920x715.jpg",
    "/images/landing-maritime-10-868x640.jpg": "/images/landing-maritime-10-868x640.jpg",
    "/images/landing-maritime-2-1200x797-original.jpg": "/images/landing-maritime-2-1200x797-original.jpg",
    "/images/landing-maritime-2-570x874.jpg": "/images/landing-maritime-2-570x874.jpg",
    "/images/landing-maritime-3-1200x810-original.jpg": "/images/landing-maritime-3-1200x810-original.jpg",
    "/images/landing-maritime-3-570x380.jpg": "/images/landing-maritime-3-570x380.jpg",
    "/images/landing-maritime-360x460.jpg": "/images/landing-maritime-360x460.jpg",
    "/images/landing-maritime-4-1200x794-original.jpg": "/images/landing-maritime-4-1200x794-original.jpg",
    "/images/landing-maritime-4-570x874.jpg": "/images/landing-maritime-4-570x874.jpg",
    "/images/landing-maritime-5-1200x803-original.jpg": "/images/landing-maritime-5-1200x803-original.jpg",
    "/images/landing-maritime-5-570x380.jpg": "/images/landing-maritime-5-570x380.jpg",
    "/images/landing-maritime-6-1200x1200-original.jpg": "/images/landing-maritime-6-1200x1200-original.jpg",
    "/images/landing-maritime-6-570x874.jpg": "/images/landing-maritime-6-570x874.jpg",
    "/images/landing-maritime-7-1200x800-original.jpg": "/images/landing-maritime-7-1200x800-original.jpg",
    "/images/landing-maritime-7-570x380.jpg": "/images/landing-maritime-7-570x380.jpg",
    "/images/landing-maritime-8-1132x832.jpg": "/images/landing-maritime-8-1132x832.jpg",
    "/images/landing-maritime-9-868x640.jpg": "/images/landing-maritime-9-868x640.jpg",
    "/images/landing-movie-1-270x400.jpg": "/images/landing-movie-1-270x400.jpg",
    "/images/landing-movie-10-270x400.jpg": "/images/landing-movie-10-270x400.jpg",
    "/images/landing-movie-11-270x400.jpg": "/images/landing-movie-11-270x400.jpg",
    "/images/landing-movie-12-270x400.jpg": "/images/landing-movie-12-270x400.jpg",
    "/images/landing-movie-13-868x640.jpg": "/images/landing-movie-13-868x640.jpg",
    "/images/landing-movie-14-640x430.jpg": "/images/landing-movie-14-640x430.jpg",
    "/images/landing-movie-14-810x1200.jpg": "/images/landing-movie-14-810x1200.jpg",
    "/images/landing-movie-15-640x430.jpg": "/images/landing-movie-15-640x430.jpg",
    "/images/landing-movie-15-810x1200.jpg": "/images/landing-movie-15-810x1200.jpg",
    "/images/landing-movie-16-640x430.jpg": "/images/landing-movie-16-640x430.jpg",
    "/images/landing-movie-16-810x1200.jpg": "/images/landing-movie-16-810x1200.jpg",
    "/images/landing-movie-17-640x430.jpg": "/images/landing-movie-17-640x430.jpg",
    "/images/landing-movie-17-810x1200.jpg": "/images/landing-movie-17-810x1200.jpg",
    "/images/landing-movie-18-640x430.jpg": "/images/landing-movie-18-640x430.jpg",
    "/images/landing-movie-18-810x1200.jpg": "/images/landing-movie-18-810x1200.jpg",
    "/images/landing-movie-19-1200x750.jpg": "/images/landing-movie-19-1200x750.jpg",
    "/images/landing-movie-19-640x430.jpg": "/images/landing-movie-19-640x430.jpg",
    "/images/landing-movie-2-270x400.jpg": "/images/landing-movie-2-270x400.jpg",
    "/images/landing-movie-3-270x400.jpg": "/images/landing-movie-3-270x400.jpg",
    "/images/landing-movie-360x460.jpg": "/images/landing-movie-360x460.jpg",
    "/images/landing-movie-4-270x400.jpg": "/images/landing-movie-4-270x400.jpg",
    "/images/landing-movie-5-270x400.jpg": "/images/landing-movie-5-270x400.jpg",
    "/images/landing-movie-6-270x400.jpg": "/images/landing-movie-6-270x400.jpg",
    "/images/landing-movie-7-270x400.jpg": "/images/landing-movie-7-270x400.jpg",
    "/images/landing-movie-8-270x400.jpg": "/images/landing-movie-8-270x400.jpg",
    "/images/landing-movie-9-270x400.jpg": "/images/landing-movie-9-270x400.jpg",
    "/images/landing-movie-slide-1-1920x750.jpg": "/images/landing-movie-slide-1-1920x750.jpg",
    "/images/landing-movie-slide-2-1920x750.jpg": "/images/landing-movie-slide-2-1920x750.jpg",
    "/images/landing-movie-slide-3-1920x750-920x750.jpg": "/images/landing-movie-slide-3-1920x750-920x750.jpg",
    "/images/landing-movie-slide-3-1920x750.jpg": "/images/landing-movie-slide-3-1920x750.jpg",
    "/images/landing-museum-360x460.jpg": "/images/landing-museum-360x460.jpg",
    "/images/landing-private-airlines-01-570x370.jpg": "/images/landing-private-airlines-01-570x370.jpg",
    "/images/landing-private-airlines-02-570x370.jpg": "/images/landing-private-airlines-02-570x370.jpg",
    "/images/landing-private-airlines-03-570x370.jpg": "/images/landing-private-airlines-03-570x370.jpg",
    "/images/landing-private-airlines-04-570x370.jpg": "/images/landing-private-airlines-04-570x370.jpg",
    "/images/landing-private-airlines-05-570x370-330x370.jpg": "/images/landing-private-airlines-05-570x370-330x370.jpg",
    "/images/landing-private-airlines-05-570x370.jpg": "/images/landing-private-airlines-05-570x370.jpg",
    "/images/landing-private-airlines-06-570x370.jpg": "/images/landing-private-airlines-06-570x370.jpg",
    "/images/landing-private-airlines-360x460.jpg": "/images/landing-private-airlines-360x460.jpg",
    "/images/landing-private-airlines-7-570x415.jpg": "/images/landing-private-airlines-7-570x415.jpg",
    "/images/landing-private-airlines-8-570x415.jpg": "/images/landing-private-airlines-8-570x415.jpg",
    "/images/landing-private-airlines-9-570x415-570x335.jpg": "/images/landing-private-airlines-9-570x415-570x335.jpg",
    "/images/landing-private-airlines-9-570x415.jpg": "/images/landing-private-airlines-9-570x415.jpg",
    "/images/landing-private-airlines-gallery-01-640x430.jpg": "/images/landing-private-airlines-gallery-01-640x430.jpg",
    "/images/landing-private-airlines-gallery-01-original.JPG": "/images/landing-private-airlines-gallery-01-original.JPG",
    "/images/landing-private-airlines-gallery-02-640x430.jpg": "/images/landing-private-airlines-gallery-02-640x430.jpg",
    "/images/landing-private-airlines-gallery-02-original.JPG": "/images/landing-private-airlines-gallery-02-original.JPG",
    "/images/landing-private-airlines-gallery-03-640x430.jpg": "/images/landing-private-airlines-gallery-03-640x430.jpg",
    "/images/landing-private-airlines-gallery-03-original.JPG": "/images/landing-private-airlines-gallery-03-original.JPG",
    "/images/landing-private-airlines-gallery-04-640x430.jpg": "/images/landing-private-airlines-gallery-04-640x430.jpg",
    "/images/landing-private-airlines-gallery-04-original.JPG": "/images/landing-private-airlines-gallery-04-original.JPG",
    "/images/landing-private-airlines-gallery-05-640x430.jpg": "/images/landing-private-airlines-gallery-05-640x430.jpg",
    "/images/landing-private-airlines-gallery-05-original-521x660.jpg": "/images/landing-private-airlines-gallery-05-original-521x660.jpg",
    "/images/landing-private-airlines-gallery-05-original.JPG": "/images/landing-private-airlines-gallery-05-original.JPG",
    "/images/landing-private-airlines-gallery-06-640x430.jpg": "/images/landing-private-airlines-gallery-06-640x430.jpg",
    "/images/landing-private-airlines-gallery-06-original-1200x800.jpg": "/images/landing-private-airlines-gallery-06-original-1200x800.jpg",
    "/images/landing-private-airlines-gallery-06-original-420x800.jpg": "/images/landing-private-airlines-gallery-06-original-420x800.jpg",
    "/images/landing-private-airlines-gallery-06-original-800x800.jpg": "/images/landing-private-airlines-gallery-06-original-800x800.jpg",
    "/images/landing-private-airlines-gallery-06-original.JPG": "/images/landing-private-airlines-gallery-06-original.JPG",
    "/images/landing-private-airlines-slider-1.jpg": "/images/landing-private-airlines-slider-1.jpg",
    "/images/landing-private-airlines-slider-2.jpg": "/images/landing-private-airlines-slider-2.jpg",
    "/images/landing-private-airlines-slider-3.jpg": "/images/landing-private-airlines-slider-3.jpg",
    "/images/landing-seo-1-570x370.jpg": "/images/landing-seo-1-570x370.jpg",
    "/images/landing-seo-2-570x370.jpg": "/images/landing-seo-2-570x370.jpg",
    "/images/landing-seo-3-570x370.jpg": "/images/landing-seo-3-570x370.jpg",
    "/images/landing-seo-360x460.jpg": "/images/landing-seo-360x460.jpg",
    "/images/landing-seo-4-570x370.jpg": "/images/landing-seo-4-570x370.jpg",
    "/images/landing-seo-5-570x370.jpg": "/images/landing-seo-5-570x370.jpg",
    "/images/landing-seo-6-570x370.jpg": "/images/landing-seo-6-570x370.jpg",
    "/images/landing-taxi-360x460.jpg": "/images/landing-taxi-360x460.jpg",
    "/images/landing-taxi-7-570x415.jpg": "/images/landing-taxi-7-570x415.jpg",
    "/images/landing-taxi-8-570x415.jpg": "/images/landing-taxi-8-570x415.jpg",
    "/images/landing-taxi-9-570x415.jpg": "/images/landing-taxi-9-570x415.jpg",
    "/images/landing-theatre-1-570x370.jpg": "/images/landing-theatre-1-570x370.jpg",
    "/images/landing-theatre-2-570x370.jpg": "/images/landing-theatre-2-570x370.jpg",
    "/images/landing-theatre-3-570x370.jpg": "/images/landing-theatre-3-570x370.jpg",
    "/images/landing-theatre-360x460.jpg": "/images/landing-theatre-360x460.jpg",
    "/images/landing-theatre-4-720x459.jpg": "/images/landing-theatre-4-720x459.jpg",
    "/images/landing-theatre-5-570x414.jpg": "/images/landing-theatre-5-570x414.jpg",
    "/images/landing-theatre-6-570x414.jpg": "/images/landing-theatre-6-570x414.jpg",
    "/images/landing-theatre-7-570x414.jpg": "/images/landing-theatre-7-570x414.jpg",
    "/images/landing-theatre-8-1920x967.jpg": "/images/landing-theatre-8-1920x967.jpg",
    "/images/landing-theatre-slide-1-1920x766.jpg": "/images/landing-theatre-slide-1-1920x766.jpg",
    "/images/landing-theatre-slide-2-1920x766.jpg": "/images/landing-theatre-slide-2-1920x766.jpg",
    "/images/landing-theatre-slide-3-1920x766.jpg": "/images/landing-theatre-slide-3-1920x766.jpg",
    "/images/landing-transportation-360x460.jpg": "/images/landing-transportation-360x460.jpg",
    "/images/landing-trucking-01-570x380.jpg": "/images/landing-trucking-01-570x380.jpg",
    "/images/landing-trucking-02-570x380.jpg": "/images/landing-trucking-02-570x380.jpg",
    "/images/landing-trucking-03-570x380.jpg": "/images/landing-trucking-03-570x380.jpg",
    "/images/landing-trucking-04-570x380.jpg": "/images/landing-trucking-04-570x380.jpg",
    "/images/landing-trucking-05-570x380.jpg": "/images/landing-trucking-05-570x380.jpg",
    "/images/landing-trucking-06-570x380.jpg": "/images/landing-trucking-06-570x380.jpg",
    "/images/landing-trucking-07-720x459.jpg": "/images/landing-trucking-07-720x459.jpg",
    "/images/landing-trucking-09-868x640.jpg": "/images/landing-trucking-09-868x640.jpg",
    "/images/landing-trucking-10-868x640.jpg": "/images/landing-trucking-10-868x640.jpg",
    "/images/landing-trucking-original-1.jpg": "/images/landing-trucking-original-1.jpg",
    "/images/landing-trucking-original-2.jpg": "/images/landing-trucking-original-2.jpg",
    "/images/landing-trucking-original-3.jpg": "/images/landing-trucking-original-3.jpg",
    "/images/landing-trucking-original-4.jpg": "/images/landing-trucking-original-4.jpg",
    "/images/landing-trucking-original-5.jpg": "/images/landing-trucking-original-5.jpg",
    "/images/landing-trucking-original-6.jpg": "/images/landing-trucking-original-6.jpg",
    "/images/landing-trucking-slider-1.jpg": "/images/landing-trucking-slider-1.jpg",
    "/images/landing-trucking-slider-2.jpg": "/images/landing-trucking-slider-2.jpg",
    "/images/landing-trucking-slider-3.jpg": "/images/landing-trucking-slider-3.jpg",
    "/images/loading.gif": "/images/loading.gif",
    "/images/logo-128x52.png": "/images/logo-128x52.png",
    "/images/logo-default-128x52.png": "/images/logo-default-128x52.png",
    "/images/logo-image-1-174x113.png": "/images/logo-image-1-174x113.png",
    "/images/logo-image-2-173x135.png": "/images/logo-image-2-173x135.png",
    "/images/logo-image-3-172x113.png": "/images/logo-image-3-172x113.png",
    "/images/logo-image-4-185x110.png": "/images/logo-image-4-185x110.png",
    "/images/logo-image-5-173x114.png": "/images/logo-image-5-173x114.png",
    "/images/logo-image-6-143x110.png": "/images/logo-image-6-143x110.png",
    "/images/logo-inverse-128x52.png": "/images/logo-inverse-128x52.png",
    "/images/logo-symbol.png": "/images/logo-symbol.png",
    "/images/logo.png": "/images/logo.png",
    "/images/masonry-gallery-outside-01-570x874.jpg": "/images/masonry-gallery-outside-01-570x874.jpg",
    "/images/masonry-gallery-outside-02-570x380.jpg": "/images/masonry-gallery-outside-02-570x380.jpg",
    "/images/masonry-gallery-outside-03-570x874.jpg": "/images/masonry-gallery-outside-03-570x874.jpg",
    "/images/masonry-gallery-outside-04-570x874.jpg": "/images/masonry-gallery-outside-04-570x874.jpg",
    "/images/masonry-gallery-outside-05-570x380.jpg": "/images/masonry-gallery-outside-05-570x380.jpg",
    "/images/masonry-gallery-outside-06-570x380.jpg": "/images/masonry-gallery-outside-06-570x380.jpg",
    "/images/masonry-title-inside-gallery-01-570x790.jpg": "/images/masonry-title-inside-gallery-01-570x790.jpg",
    "/images/masonry-title-inside-gallery-03-570x790.jpg": "/images/masonry-title-inside-gallery-03-570x790.jpg",
    "/images/masonry-title-inside-gallery-04-570x790.jpg": "/images/masonry-title-inside-gallery-04-570x790.jpg",
    "/images/mCSB_buttons.png": "/images/mCSB_buttons.png",
    "/images/megamenu-banner-301x510.jpg": "/images/megamenu-banner-301x510.jpg",
    "/images/museum-01-570x790.jpg": "/images/museum-01-570x790.jpg",
    "/images/museum-01-720x459.jpg": "/images/museum-01-720x459.jpg",
    "/images/museum-01-original.jpg": "/images/museum-01-original.jpg",
    "/images/museum-02-570x380.jpg": "/images/museum-02-570x380.jpg",
    "/images/museum-02-original.jpg": "/images/museum-02-original.jpg",
    "/images/museum-03-570x790.jpg": "/images/museum-03-570x790.jpg",
    "/images/museum-03-original.jpg": "/images/museum-03-original.jpg",
    "/images/museum-04-570x790.jpg": "/images/museum-04-570x790.jpg",
    "/images/museum-04-original.jpg": "/images/museum-04-original.jpg",
    "/images/museum-05-570x380.jpg": "/images/museum-05-570x380.jpg",
    "/images/museum-05-original.jpg": "/images/museum-05-original.jpg",
    "/images/museum-06-570x380.jpg": "/images/museum-06-570x380.jpg",
    "/images/museum-06-original.jpg": "/images/museum-06-original.jpg",
    "/images/museum-blog-01-868x640.jpg": "/images/museum-blog-01-868x640.jpg",
    "/images/museum-blog-02-868x640.jpg": "/images/museum-blog-02-868x640.jpg",
    "/images/museum-blog-post-video-01-420x305.jpg": "/images/museum-blog-post-video-01-420x305.jpg",
    "/images/museum-slider-slide-01-1920x860.jpg": "/images/museum-slider-slide-01-1920x860.jpg",
    "/images/museum-slider-slide-02-1920x860.jpg": "/images/museum-slider-slide-02-1920x860.jpg",
    "/images/museum-slider-slide-03-1920x860.jpg": "/images/museum-slider-slide-03-1920x860.jpg",
    "/images/newhope-back-2.jpg": "/images/newhope-back-2.jpg",
    "/images/newhope-back.jpg": "/images/newhope-back.jpg",
    "/images/nh-logo.png": "/images/nh-logo.png",
    "/images/nhcrm-background.jpg": "/images/nhcrm-background.jpg",
    "/images/parallax-bg-01.jpg": "/images/parallax-bg-01.jpg",
    "/images/parallax-scene-01-132x133.png": "/images/parallax-scene-01-132x133.png",
    "/images/parallax-scene-02-186x208.png": "/images/parallax-scene-02-186x208.png",
    "/images/parallax-scene-03-108x120.png": "/images/parallax-scene-03-108x120.png",
    "/images/parallax-scene-04-124x145.png": "/images/parallax-scene-04-124x145.png",
    "/images/parallax-scene-05-100x101.png": "/images/parallax-scene-05-100x101.png",
    "/images/parallax-scene-06-240x243.png": "/images/parallax-scene-06-240x243.png",
    "/images/post-author-1-108x108.jpg": "/images/post-author-1-108x108.jpg",
    "/images/post-light-1-120x80.jpg": "/images/post-light-1-120x80.jpg",
    "/images/post-light-2-120x80.jpg": "/images/post-light-2-120x80.jpg",
    "/images/post-light-3-120x80.jpg": "/images/post-light-3-120x80.jpg",
    "/images/post-light-4-120x80.jpg": "/images/post-light-4-120x80.jpg",
    "/images/preloader.gif": "/images/preloader.gif",
    "/images/preloader.png": "/images/preloader.png",
    "/images/product-modal-01-318x416.jpg": "/images/product-modal-01-318x416.jpg",
    "/images/project-1-1200x800-original.jpg": "/images/project-1-1200x800-original.jpg",
    "/images/project-1-570x380.jpg": "/images/project-1-570x380.jpg",
    "/images/project-2-1200x800-original.jpg": "/images/project-2-1200x800-original.jpg",
    "/images/project-2-570x380.jpg": "/images/project-2-570x380.jpg",
    "/images/project-3-1200x800-original.jpg": "/images/project-3-1200x800-original.jpg",
    "/images/project-3-570x380.jpg": "/images/project-3-570x380.jpg",
    "/images/project-4-1200x800-original.jpg": "/images/project-4-1200x800-original.jpg",
    "/images/project-4-570x380.jpg": "/images/project-4-570x380.jpg",
    "/images/project-5-1200x800-original.jpg": "/images/project-5-1200x800-original.jpg",
    "/images/project-5-570x380.jpg": "/images/project-5-570x380.jpg",
    "/images/project-6-1200x800-original.jpg": "/images/project-6-1200x800-original.jpg",
    "/images/project-6-570x380.jpg": "/images/project-6-570x380.jpg",
    "/images/quote-taxi-1-103x107.jpg": "/images/quote-taxi-1-103x107.jpg",
    "/images/quote-taxi-2-107x111.jpg": "/images/quote-taxi-2-107x111.jpg",
    "/images/quote-taxi-3-109x112.jpg": "/images/quote-taxi-3-109x112.jpg",
    "/images/quote-user-1-210x210.jpg": "/images/quote-user-1-210x210.jpg",
    "/images/quote-user-2-210x210.jpg": "/images/quote-user-2-210x210.jpg",
    "/images/quote-user-3-210x210.jpg": "/images/quote-user-3-210x210.jpg",
    "/images/quote-user-4-80x80.jpg": "/images/quote-user-4-80x80.jpg",
    "/images/quote-user-5-80x80.jpg": "/images/quote-user-5-80x80.jpg",
    "/images/quote-user-6-80x80.jpg": "/images/quote-user-6-80x80.jpg",
    "/images/quote-user-7-80x80.jpg": "/images/quote-user-7-80x80.jpg",
    "/images/registration-modal-01-510x807.jpg": "/images/registration-modal-01-510x807.jpg",
    "/images/ronald-chen-1-420x420.jpg": "/images/ronald-chen-1-420x420.jpg",
    "/images/roy-henry-150x150.jpg": "/images/roy-henry-150x150.jpg",
    "/images/sale-modal-01-1170x600.jpg": "/images/sale-modal-01-1170x600.jpg",
    "/images/scrim-370x260.jpg": "/images/scrim-370x260.jpg",
    "/images/services-1-960x660.jpg": "/images/services-1-960x660.jpg",
    "/images/services-2-960x660.jpg": "/images/services-2-960x660.jpg",
    "/images/services-3-960x660.jpg": "/images/services-3-960x660.jpg",
    "/images/services-4-960x660.jpg": "/images/services-4-960x660.jpg",
    "/images/services-5-720x459.jpg": "/images/services-5-720x459.jpg",
    "/images/shop-01-420x550.png": "/images/shop-01-420x550.png",
    "/images/shop-01-54x71.png": "/images/shop-01-54x71.png",
    "/images/shop-02-10x71.png": "/images/shop-02-10x71.png",
    "/images/shop-02-420x550.png": "/images/shop-02-420x550.png",
    "/images/single-job-01-570x380.jpg": "/images/single-job-01-570x380.jpg",
    "/images/single-job-02-570x380.jpg": "/images/single-job-02-570x380.jpg",
    "/images/single-project-1-870x580.jpg": "/images/single-project-1-870x580.jpg",
    "/images/single-project-2-870x580.jpg": "/images/single-project-2-870x580.jpg",
    "/images/single-project-3-870x580.jpg": "/images/single-project-3-870x580.jpg",
    "/images/single-project-4-870x580.jpg": "/images/single-project-4-870x580.jpg",
    "/images/slider-1-slide-1-1920x910.jpg": "/images/slider-1-slide-1-1920x910.jpg",
    "/images/slider-1-slide-2-1920x910.jpg": "/images/slider-1-slide-2-1920x910.jpg",
    "/images/slider-1-slide-3-1920x910.jpg": "/images/slider-1-slide-3-1920x910.jpg",
    "/images/slides/web-slide-new-hope-buidling.png": "/images/slides/web-slide-new-hope-buidling.png",
    "/images/slides/web-slide-new-hope-kids-2.png": "/images/slides/web-slide-new-hope-kids-2.png",
    "/images/slides/web-slide-new-hope-kids.png": "/images/slides/web-slide-new-hope-kids.png",
    "/images/slides/web-slide-new-hope-preaching.png": "/images/slides/web-slide-new-hope-preaching.png",
    "/images/slides/web-slide-new-hope-worship.png": "/images/slides/web-slide-new-hope-worship.png",
    "/images/sprite.png": "/images/sprite.png",
    "/images/taxi-landing-1-640x470.jpg": "/images/taxi-landing-1-640x470.jpg",
    "/images/taxi-slider-slide-01-1920x800.jpg": "/images/taxi-slider-slide-01-1920x800.jpg",
    "/images/taxi-slider-slide-02-1920x800.jpg": "/images/taxi-slider-slide-02-1920x800.jpg",
    "/images/taxi-slider-slide-03-1920x800.jpg": "/images/taxi-slider-slide-03-1920x800.jpg",
    "/images/team/1.jpg": "/images/team/1.jpg",
    "/images/team/2.jpg": "/images/team/2.jpg",
    "/images/team/3.jpg": "/images/team/3.jpg",
    "/images/team/4.jpg": "/images/team/4.jpg",
    "/images/team-01-270x270.jpg": "/images/team-01-270x270.jpg",
    "/images/team-02-270x270.jpg": "/images/team-02-270x270.jpg",
    "/images/team-03-270x270.jpg": "/images/team-03-270x270.jpg",
    "/images/team-04-270x270.jpg": "/images/team-04-270x270.jpg",
    "/images/team-05-270x270.jpg": "/images/team-05-270x270.jpg",
    "/images/team-06-270x270.jpg": "/images/team-06-270x270.jpg",
    "/images/team-07-300x300.jpg": "/images/team-07-300x300.jpg",
    "/images/team-08-300x300.jpg": "/images/team-08-300x300.jpg",
    "/images/team-09-300x300.jpg": "/images/team-09-300x300.jpg",
    "/images/team-10-300x300.jpg": "/images/team-10-300x300.jpg",
    "/images/team-11-380x380.jpg": "/images/team-11-380x380.jpg",
    "/images/team-12-300x300.jpg": "/images/team-12-300x300.jpg",
    "/images/team-13-300x300.jpg": "/images/team-13-300x300.jpg",
    "/images/team-14-300x300.jpg": "/images/team-14-300x300.jpg",
    "/images/team-15-300x300.jpg": "/images/team-15-300x300.jpg",
    "/images/title-inside-gallery-01-570x380.jpg": "/images/title-inside-gallery-01-570x380.jpg",
    "/images/title-inside-gallery-02-570x380.jpg": "/images/title-inside-gallery-02-570x380.jpg",
    "/images/title-inside-gallery-03-570x380.jpg": "/images/title-inside-gallery-03-570x380.jpg",
    "/images/title-inside-gallery-04-570x380.jpg": "/images/title-inside-gallery-04-570x380.jpg",
    "/images/title-inside-gallery-05-570x380.jpg": "/images/title-inside-gallery-05-570x380.jpg",
    "/images/title-inside-gallery-06-570x380.jpg": "/images/title-inside-gallery-06-570x380.jpg",
    "/images/tm-logo.jpg": "/images/tm-logo.jpg",
    "/images/twitter-bg.jpg": "/images/twitter-bg.jpg",
    "/images/twitter-blank.jpg": "/images/twitter-blank.jpg",
    "/images/typography-1-770x480.jpg": "/images/typography-1-770x480.jpg",
    "/images/user-1-80x80.jpg": "/images/user-1-80x80.jpg",
    "/images/user-2-80x80.jpg": "/images/user-2-80x80.jpg",
    "/images/user-3-80x80.jpg": "/images/user-3-80x80.jpg",
    "/images/video-bg-lg.jpg": "/images/video-bg-lg.jpg",
    "/images/video-play.png": "/images/video-play.png",
    "/images/video-poster-builder-demo.jpg": "/images/video-poster-builder-demo.jpg",
    "/images/video-poster.jpg": "/images/video-poster.jpg",
    "/images/vimeo-play.png": "/images/vimeo-play.png",
    "/images/volume.png": "/images/volume.png",
    "/images/youtube-play.png": "/images/youtube-play.png",
    "/images/_blank.png": "/images/_blank.png",
    "/fonts/bootstrap/glyphicons-halflings-regular.eot": "/fonts/bootstrap/glyphicons-halflings-regular.eot",
    "/fonts/bootstrap/glyphicons-halflings-regular.svg": "/fonts/bootstrap/glyphicons-halflings-regular.svg",
    "/fonts/bootstrap/glyphicons-halflings-regular.ttf": "/fonts/bootstrap/glyphicons-halflings-regular.ttf",
    "/fonts/bootstrap/glyphicons-halflings-regular.woff": "/fonts/bootstrap/glyphicons-halflings-regular.woff",
    "/fonts/bootstrap/glyphicons-halflings-regular.woff2": "/fonts/bootstrap/glyphicons-halflings-regular.woff2",
    "/fonts/fl-bigmug-line.eot": "/fonts/fl-bigmug-line.eot",
    "/fonts/fl-bigmug-line.svg": "/fonts/fl-bigmug-line.svg",
    "/fonts/fl-bigmug-line.svg___jb_tmp___": "/fonts/fl-bigmug-line.svg___jb_tmp___",
    "/fonts/fl-bigmug-line.ttf": "/fonts/fl-bigmug-line.ttf",
    "/fonts/fl-bigmug-line.woff": "/fonts/fl-bigmug-line.woff",
    "/fonts/lg.eot": "/fonts/lg.eot",
    "/fonts/lg.svg": "/fonts/lg.svg",
    "/fonts/lg.ttf": "/fonts/lg.ttf",
    "/fonts/lg.woff": "/fonts/lg.woff",
    "/fonts/materialdesignicons-webfont.eot": "/fonts/materialdesignicons-webfont.eot",
    "/fonts/materialdesignicons-webfont.svg": "/fonts/materialdesignicons-webfont.svg",
    "/fonts/materialdesignicons-webfont.ttf": "/fonts/materialdesignicons-webfont.ttf",
    "/fonts/materialdesignicons-webfont.woff": "/fonts/materialdesignicons-webfont.woff",
    "/fonts/materialdesignicons-webfont.woff2": "/fonts/materialdesignicons-webfont.woff2",
    "/css/bootstrap.css": "/css/bootstrap.css",
    "/css/fl-bigmug-line.css": "/css/fl-bigmug-line.css",
    "/css/mdi.css": "/css/mdi.css",
    "/css/novi.css": "/css/novi.css",
    "/css/style-alt-colors.css": "/css/style-alt-colors.css",
    "/css/style.css": "/css/style.css",
    "/css/style.css.map": "/css/style.css.map"
}
